<svg width="21" height="24" viewBox="0 0 21 24" fill="none" xmlns="http://www.w3.org/2000/svg">
<path d="M0.832886 12.0146C0.832886 8.17877 1.86144 5.2224 3.91846 3.14553C5.70723 1.33692 7.98291 0.432617 10.7455 0.432617C14.4422 0.432617 17.1452 1.64494 18.8544 4.06968C19.7984 5.43105 20.3052 6.79747 20.3747 8.16885H15.7837C15.4856 7.11549 15.103 6.32048 14.6359 5.78388C13.8012 4.82989 12.564 4.3529 10.9243 4.3529C9.25484 4.3529 7.93819 5.02864 6.9742 6.38008C6.01029 7.72162 5.52834 9.62463 5.52834 12.0891C5.52834 14.5536 6.03514 16.4019 7.04876 17.6342C8.07235 18.8565 9.36917 19.4676 10.9393 19.4676C12.5491 19.4676 13.7764 18.941 14.6211 17.8876C15.0881 17.3212 15.4757 16.4715 15.7837 15.3386H20.3301C19.9326 17.7335 18.914 19.6813 17.2743 21.1818C15.6446 22.6824 13.5527 23.4326 10.9989 23.4326C7.83882 23.4326 5.35448 22.4191 3.54587 20.3918C1.73727 18.3546 0.832961 15.5622 0.832961 12.0143L0.832886 12.0146Z" fill="white"/>
</svg>
