<svg width="24" height="24" viewBox="0 0 24 24" fill="none" xmlns="http://www.w3.org/2000/svg">
<path d="M23.0079 10.9661V12.3337C22.9987 12.3718 22.9925 12.4106 22.9894 12.4497C22.9665 12.8926 22.9121 13.3334 22.8267 13.7686C22.1713 17.0938 20.4254 19.6786 17.5888 21.5229C16.1837 22.4298 14.5934 23.0071 12.936 23.2118C12.6579 23.249 12.3776 23.2745 12.0983 23.3047H10.7378C10.7055 23.2961 10.6727 23.29 10.6397 23.2861C9.77579 23.2337 8.92118 23.0779 8.09401 22.8221C5.25871 21.9428 3.06732 20.2238 1.50021 17.6974C1.47713 17.6603 1.43789 17.6267 1.4529 17.5744C1.46328 17.5744 1.47136 17.5663 1.47828 17.5686L1.57291 17.6023C1.92419 17.7539 2.28945 17.8705 2.66343 17.9502C2.98654 18.0083 3.3085 18.0663 3.63394 18.1022C4.05462 18.1668 4.48263 18.1668 4.90328 18.1022C5.52215 17.9819 6.15562 17.9569 6.78195 18.028L6.97005 18.043C7.03818 18.0573 7.10848 18.0573 7.17661 18.043C7.16016 18.0319 7.14279 18.0222 7.12468 18.014C6.4625 17.7768 5.75981 17.675 5.0579 17.7148C4.924 17.727 4.78941 17.7293 4.65517 17.7218C4.07398 17.6684 3.52243 17.4395 3.07311 17.0652C2.38686 16.5265 1.78709 15.8848 1.29482 15.1629C0.751299 14.3741 0.450149 13.4797 0.22968 12.5553C0.132744 12.1481 0.0773553 11.7352 0.00811768 11.3234V11.1436C0.0358127 11.205 0.0669701 11.2596 0.0912045 11.3269C0.256474 11.7752 0.494317 12.193 0.79513 12.5633C1.12516 12.9554 1.52444 13.2072 2.05642 13.1921C2.09818 13.193 2.13982 13.1969 2.18106 13.2036C2.78276 13.3026 3.369 13.4805 3.92469 13.7326C4.20972 13.8486 4.48898 13.9855 4.78669 14.12C4.75369 14.0747 4.70956 14.0387 4.65859 14.0156C3.67839 13.3715 2.78608 12.6013 2.00442 11.7248C1.32273 10.9679 0.956695 9.97652 0.981995 8.9559C0.994078 8.06474 1.12091 7.17884 1.35935 6.32045C1.36304 6.29648 1.37201 6.27363 1.38558 6.25357C1.39915 6.23351 1.41699 6.21673 1.43782 6.20446C1.74477 9.10433 3.28421 11.0902 5.86561 12.3372C5.86208 12.316 5.85434 12.2957 5.84284 12.2776C5.83134 12.2594 5.81631 12.2438 5.79868 12.2316C5.18613 11.6278 4.62347 10.9749 4.11616 10.2794C3.21375 9.04863 2.76024 7.69033 2.89873 6.14877C3.00007 5.05119 3.35876 3.99336 3.94539 3.06211C3.95924 3.04123 3.96731 3.00411 4.01578 3.02151V3.13751C3.98941 3.72374 4.00638 4.31116 4.06656 4.89486C4.14272 5.5166 4.25234 6.1302 4.5466 6.69279C5.00819 7.57664 5.63942 8.3307 6.3341 9.03359C6.34696 9.04485 6.36134 9.05421 6.37679 9.06144C6.38718 9.01035 6.35602 8.98258 6.33871 8.95121C5.88896 8.14445 5.50982 7.2999 5.20548 6.42714C4.95609 5.74658 4.87684 5.01487 4.97469 4.29629C5.13855 3.17341 5.63937 2.20832 6.34211 1.33605C6.39634 1.26993 6.45751 1.20614 6.51405 1.1377C6.5236 1.14994 6.52878 1.16506 6.52878 1.18062C6.52878 1.19617 6.5236 1.21129 6.51405 1.22354C6.27123 1.76816 6.13415 2.35439 6.11016 2.95074C6.05591 3.99255 6.18442 5.03575 6.48981 6.03279C6.60909 6.49985 6.82803 6.93521 7.13143 7.30879C7.16951 7.35287 7.20066 7.40854 7.27452 7.42478C7.27606 7.40432 7.27606 7.38377 7.27452 7.36331C7.12084 6.51149 7.06469 5.64473 7.10719 4.7801C7.14366 3.99847 7.31507 3.22918 7.61378 2.50657C7.83161 1.96318 8.17495 1.47971 8.6155 1.09603C9.05472 0.719495 9.57369 0.448902 10.1329 0.304932H10.3637C10.2113 0.387044 10.0643 0.47927 9.92403 0.581003C9.39208 1.00799 8.98096 1.56802 8.73198 2.20495C8.45073 2.91114 8.29449 3.66133 8.27043 4.42164C8.21152 5.3786 8.26928 6.33925 8.44235 7.28216C8.78858 9.04411 9.65863 10.5069 10.9569 11.7144C11.7935 12.4927 12.794 12.7896 13.9261 12.5577C14.3461 12.4718 14.7431 12.3257 15.0546 12.0089C15.155 11.9081 15.2612 11.7828 15.1989 11.6297C15.1365 11.4766 14.968 11.5009 14.8354 11.4823C14.7511 11.4696 14.6196 11.5485 14.5942 11.4731C14.5688 11.3976 14.6888 11.3188 14.7569 11.2527C15.2684 10.7348 15.8078 10.2453 16.3724 9.78651C16.729 9.50345 16.9495 9.11836 17.1352 8.71587C17.1953 8.58937 17.1502 8.53253 17.0199 8.56037C16.9194 8.58247 16.9148 8.54296 16.9276 8.4618C16.9471 8.33304 16.9621 8.20313 16.9749 8.07321C17.0061 7.89703 16.9836 7.71546 16.9102 7.55239C16.7935 7.32427 16.6244 7.12742 16.4169 6.97813C16.2094 6.82886 15.9694 6.73145 15.717 6.69401C15.4009 6.64182 15.0881 6.69401 14.7753 6.70794C14.3438 6.72997 13.9133 6.76593 13.4818 6.79261C13.3467 6.80073 13.3271 6.77869 13.3664 6.66269C13.5441 6.08271 13.7968 5.53751 14.2445 5.10602C14.3899 4.96566 14.5307 4.82066 14.6692 4.67335C14.7411 4.61299 14.793 4.53207 14.8181 4.44135C14.9046 3.92517 15.2069 3.56326 15.6397 3.30114C16.0688 3.05725 16.5466 2.91261 17.0383 2.87775C18.3642 2.73972 19.4224 3.2791 20.3352 4.1885C21.7334 5.87118 22.6268 7.9189 22.9109 10.0927C22.9513 10.3792 22.9755 10.6726 23.0078 10.9661L23.0079 10.9661Z" fill="white"/>
</svg>
