<svg width="31" height="22" viewBox="0 0 31 22" fill="none" xmlns="http://www.w3.org/2000/svg">
<path d="M3.18071 21.2679V0.2H27.8192V21.2679H3.18071Z" fill="white" stroke="#F44336" stroke-width="0.4"/>
<path d="M28.0938 0.102715H27.125L15.5 8.5384L3.875 0.102715H2.90625C1.302 0.102715 0 1.29916 0 2.77336V18.7972C0 20.2714 1.302 21.4679 2.90625 21.4679H3.875V4.81374L15.5 13.0304L27.125 4.81196V21.4679H28.0938C29.698 21.4679 31 20.2714 31 18.7972V2.77336C31 1.29916 29.698 0.102715 28.0938 0.102715Z" fill="#F44336"/>
</svg>
