<svg width="177" height="34" viewBox="0 0 177 34" fill="none" xmlns="http://www.w3.org/2000/svg">
<path d="M41.0498 12.477L35.8027 12.447L35.8203 9.35502L50.1093 9.43648L50.0917 12.5285L44.8445 12.4986L44.7688 25.8037L40.974 25.7821L41.0498 12.477ZM62.8993 19.6525C62.8993 19.6993 62.8739 20.0271 62.8237 20.6359L53.2896 20.5816C53.4569 21.3634 53.8594 21.9825 54.4971 22.439C55.1348 22.8955 55.93 23.1265 56.8826 23.132C57.5385 23.1357 58.1168 23.0453 58.6176 22.8607C59.1341 22.6607 59.6122 22.3511 60.0518 21.9319L61.9841 24.0512C60.7895 25.4031 59.0522 26.0725 56.7722 26.0595C55.3511 26.0514 54.0956 25.771 53.0055 25.2182C51.9156 24.6497 51.0767 23.8719 50.4889 22.8847C49.9011 21.8975 49.6107 20.7793 49.6179 19.5299C49.6249 18.2962 49.9201 17.1891 50.5035 16.2086C51.1026 15.2125 51.9113 14.4441 52.9295 13.9033C53.9633 13.347 55.1127 13.0724 56.3776 13.0796C57.6114 13.0867 58.7264 13.3585 59.7228 13.8952C60.7193 14.4318 61.4957 15.2015 62.0522 16.2041C62.6242 17.1913 62.9067 18.3407 62.8993 19.6525ZM56.3853 15.8439C55.5577 15.8392 54.8614 16.0695 54.2966 16.5348C53.7317 17 53.3845 17.6383 53.255 18.4497L59.4624 18.485C59.342 17.6879 59.0021 17.0535 58.4426 16.5818C57.8831 16.0945 57.1974 15.8485 56.3853 15.8439ZM68.8492 15.0013C69.2896 14.3948 69.8779 13.9374 70.6135 13.6293C71.3651 13.3213 72.2251 13.1699 73.1929 13.1755L73.1741 16.5486C72.7679 16.5151 72.4948 16.4979 72.3543 16.4971C71.3082 16.4911 70.4863 16.7832 69.89 17.3732C69.293 17.9476 68.9911 18.8204 68.9844 19.9917L68.951 25.9415L65.2967 25.9207L65.3683 13.3183L68.8586 13.3382L68.8492 15.0013ZM91.5051 13.2798C93.0826 13.2888 94.3295 13.7644 95.2451 14.7067C96.1774 15.6334 96.6379 17.0259 96.6271 18.8842L96.5856 26.099L92.932 26.0781L92.9695 19.4256C92.9755 18.4261 92.7687 17.6832 92.3498 17.1967C91.9468 16.6946 91.3626 16.4414 90.5976 16.437C89.7382 16.4322 89.0575 16.7094 88.5542 17.2688C88.0516 17.8125 87.7973 18.6309 87.7913 19.724L87.7551 26.0487L84.1008 26.0279L84.1383 19.3753C84.1497 17.392 83.3593 16.3958 81.7664 16.3867C80.9231 16.382 80.2498 16.6592 79.7472 17.2186C79.2439 17.7623 78.9895 18.5807 78.9835 19.6738L78.9474 25.9985L75.2931 25.9777L75.3647 13.3753L78.855 13.3951L78.847 14.8475C79.3182 14.3192 79.8904 13.9164 80.5637 13.6391C81.2524 13.362 82.0026 13.2257 82.8152 13.2303C83.7053 13.2354 84.5084 13.4196 85.2246 13.7828C85.9407 14.1305 86.5156 14.6413 86.9493 15.3153C87.4687 14.6623 88.1192 14.1585 88.9023 13.8037C89.7007 13.4492 90.5688 13.2745 91.5051 13.2798ZM99.9334 13.5152L103.588 13.5361L103.515 26.1384L99.8611 26.1176L99.9334 13.5152ZM101.771 11.7688C101.099 11.765 100.553 11.5667 100.134 11.1739C99.7145 10.7811 99.5064 10.2958 99.5097 9.71791C99.5131 9.14012 99.7266 8.65723 100.15 8.26925C100.575 7.8812 101.122 7.68911 101.793 7.69293C102.465 7.69681 103.011 7.88729 103.43 8.26449C103.849 8.6417 104.058 9.11134 104.054 9.67353C104.051 10.2826 103.837 10.7889 103.414 11.1925C102.989 11.5805 102.442 11.7727 101.771 11.7688ZM114.64 13.4116C116.202 13.4205 117.456 13.8962 118.403 14.8386C119.366 15.7811 119.842 17.1737 119.832 19.0165L119.79 26.2312L116.136 26.2104L116.174 19.5578C116.18 18.5583 115.965 17.8154 115.531 17.3287C115.097 16.8266 114.466 16.573 113.638 16.5684C112.717 16.5631 111.981 16.8478 111.431 17.4225C110.882 17.9816 110.603 18.8233 110.597 19.9477L110.561 26.1786L106.907 26.1578L106.979 13.5554L110.469 13.5753L110.461 15.051C110.948 14.5228 111.551 14.1202 112.272 13.8432C112.991 13.5506 113.781 13.4067 114.64 13.4116ZM128.259 13.4892C130.211 13.5004 131.708 13.9774 132.748 14.9204C133.79 15.8477 134.304 17.2483 134.294 19.1223L134.253 26.3136L130.833 26.2941L130.842 24.7247C130.148 25.892 128.864 26.4703 126.99 26.4596C126.022 26.4541 125.179 26.2853 124.463 25.9533C123.763 25.6213 123.226 25.1654 122.855 24.5855C122.483 24.0055 122.299 23.3486 122.303 22.6146C122.31 21.4433 122.753 20.5245 123.631 19.858C124.526 19.1915 125.894 18.8636 127.736 18.8741L130.641 18.8906C130.645 18.0942 130.407 17.4838 129.925 17.0594C129.443 16.6194 128.719 16.3966 127.75 16.3911C127.079 16.3872 126.415 16.4928 125.758 16.7077C125.116 16.9071 124.568 17.185 124.113 17.5416L122.815 14.9809C123.506 14.5007 124.327 14.1306 125.282 13.8705C126.252 13.6105 127.244 13.4835 128.259 13.4892ZM127.918 24.0052C128.543 24.0088 129.097 23.8714 129.583 23.5931C130.069 23.2991 130.415 22.8717 130.621 22.3106L130.629 21.0223L128.122 21.008C126.623 20.9995 125.871 21.4871 125.865 22.4709C125.863 22.9394 126.04 23.3152 126.398 23.5984C126.771 23.8659 127.278 24.0016 127.918 24.0052ZM137.66 8.95145L141.313 8.97226L141.215 26.3533L137.56 26.3324L137.66 8.95145ZM152.803 26.7004C151.101 26.6907 149.565 26.315 148.195 25.5731C146.84 24.8314 145.776 23.8181 145.002 22.5331C144.245 21.2326 143.87 19.7781 143.88 18.1696C143.889 16.5611 144.279 15.1188 145.052 13.8426C145.84 12.5509 146.916 11.542 148.278 10.8157C149.657 10.0896 151.197 9.73136 152.9 9.74107C154.602 9.75077 156.13 10.1264 157.484 10.8681C158.839 11.6099 159.902 12.631 160.676 13.9316C161.45 15.2166 161.832 16.6634 161.823 18.2719C161.813 19.8804 161.415 21.3304 160.627 22.6221C159.839 23.8982 158.763 24.8994 157.4 25.6256C156.037 26.3519 154.505 26.7101 152.803 26.7004ZM152.821 23.4679C153.789 23.4733 154.665 23.2597 155.448 22.8269C156.232 22.3785 156.845 21.7573 157.286 20.9633C157.744 20.1695 157.976 19.265 157.981 18.25C157.987 17.2349 157.765 16.3279 157.317 15.5288C156.885 14.7299 156.279 14.1096 155.501 13.6679C154.722 13.2106 153.849 12.9792 152.881 12.9736C151.913 12.9681 151.037 13.1895 150.253 13.638C149.47 14.0708 148.85 14.6841 148.393 15.478C147.951 16.2719 147.727 17.1765 147.722 18.1915C147.715 19.2065 147.929 20.1135 148.361 20.9125C148.81 21.7115 149.424 22.3396 150.201 22.797C150.98 23.2387 151.853 23.4623 152.821 23.4679ZM170.014 26.7985C168.718 26.7911 167.462 26.6121 166.245 26.2616C165.045 25.8956 164.079 25.4294 163.349 24.863L164.654 22.0126C165.353 22.5319 166.186 22.9506 167.153 23.2684C168.119 23.5862 169.086 23.7479 170.055 23.7534C171.132 23.7596 171.929 23.6079 172.447 23.2985C172.964 22.9735 173.224 22.5456 173.227 22.0146C173.229 21.6242 173.075 21.3032 172.764 21.0515C172.469 20.7844 172.079 20.5713 171.596 20.4124C171.129 20.2536 170.49 20.0781 169.679 19.8861C168.431 19.5823 167.41 19.2797 166.615 18.9785C165.82 18.6773 165.136 18.197 164.562 17.5379C164.003 16.8788 163.727 16.0027 163.733 14.9095C163.739 13.9569 164.001 13.0995 164.521 12.3372C165.041 11.5593 165.818 10.9469 166.851 10.4999C167.9 10.053 169.173 9.83376 170.673 9.84233C171.719 9.84828 172.741 9.97906 173.739 10.2346C174.737 10.4902 175.61 10.8544 176.357 11.3271L175.169 14.2016C173.659 13.3341 172.147 12.896 170.632 12.8874C169.57 12.8813 168.78 13.0486 168.263 13.3893C167.762 13.7299 167.509 14.1814 167.506 14.7436C167.503 15.3057 167.789 15.7291 168.366 16.0134C168.957 16.2823 169.854 16.5529 171.055 16.8252C172.302 17.1291 173.324 17.4316 174.118 17.7328C174.913 18.0341 175.59 18.5065 176.148 19.1499C176.722 19.7935 177.006 20.6619 177 21.755C176.995 22.692 176.724 23.5494 176.189 24.3271C175.669 25.0894 174.885 25.694 173.836 26.1409C172.787 26.5878 171.513 26.807 170.014 26.7985Z" fill="#292929"/>
<path d="M17.2301 33.4602C26.1937 33.4602 33.4602 26.1937 33.4602 17.2301C33.4602 8.26647 26.1937 1 17.2301 1C8.26647 1 1 8.26647 1 17.2301C1 26.1937 8.26647 33.4602 17.2301 33.4602Z" fill="#292929" stroke="#E5E5E5" stroke-width="0.5"/>
<path d="M13.6688 11.0001H11.2065V23.3128H13.6688V11.0001Z" fill="white"/>
<path d="M12.7472 8.52942H12.1599V25.9021H12.7472V8.52942Z" fill="white"/>
<path d="M18.637 13.4636H16.1121V20.9059H18.637V13.4636Z" fill="white"/>
<path d="M23.5706 14.7054H21.0457V19.6491H23.5706V14.7054Z" fill="white"/>
<path d="M17.6634 11.0508H17.0505V23.3349H17.6634V11.0508Z" fill="white"/>
<path d="M22.6225 12.2604H22.0096V22.171H22.6225V12.2604Z" fill="white"/>
</svg>
